exercises.qmd
…
  mutate(
    rad_ib_cm = rad_ib_mm / 10,  
    DBH_cm = rad_ib_cm * 2         
  ) %>%

  group_by(species, treeID) %>%
  arrange(year) %>%  
  mutate(growth_rate = DBH_cm - lag(DBH_cm)) %>%
  summarise(avg_growth = mean(growth_rate, na.rm = TRUE)) %>%
  arrange(desc(avg_growth))

`summarise()` has grouped output by 'species'. You can override using the
`.groups` argument.

# A tibble: 2,291 × 3
# Groups:   species [15]
   species treeID avg_growth
   <chr>    <int>      <dbl>
 1 POTR      1949      0.836
 2 PIBA       460      0.783
 3 PIST      1413      0.742
 4 PIBA       797      0.738
 5 PIRE       348      0.733
 6 PIBA       407      0.727
 7 ABBA       826      0.722
 8 PIBA       467      0.716
 9 ABBA       780      0.711
10 PIGL      2251      0.710
# ℹ 2,281 more rows
…
